module pnda.cloud/cli

go 1.21

toolchain go1.21.1

require github.com/pterm/pterm v0.12.69

require (
	atomicgo.dev/cursor v0.2.0 // indirect
	atomicgo.dev/keyboard v0.2.9 // indirect
	atomicgo.dev/schedule v0.1.0 // indirect
	github.com/containerd/console v1.0.3 // indirect
	github.com/gookit/color v1.5.4 // indirect
	github.com/lithammer/fuzzysearch v1.1.8 // indirect
	github.com/mattn/go-runewidth v0.0.15 // indirect
	github.com/rivo/uniseg v0.4.4 // indirect
	github.com/xo/terminfo v0.0.0-20220910002029-abceb7e1c41e // indirect
	golang.org/x/sys v0.12.0 // indirect
	golang.org/x/term v0.12.0 // indirect
	golang.org/x/text v0.13.0 // indirect
)
